AE-01 Meet the Penguins – mth161 :: Elementary Statistics
…
The palmerpenguins package includes data that were collected and made available by Dr. Kristen Gorman and the Palmer Station, Antarctica LTER, a member of the Long Term Ecological Research Network established by the National Science Foundation in 1980.

You can find more information about the palmerpenguins package by reading this vignette maintained by Allison Horst (who also drew our friends above).

In the world of R, a vingnette is a detailed description of a package. Looking at a package’s vingnette is a good way to learn the names of the datasets included in a package.

1 A First Look at the Data

Now that we’ve loaded the palmerpenguins package, we can now begin to investigate the data. The data is organized in what we’ll call a data frame. This means that we have rectangular array where each row is an individual penguin (observation) and each column is a particular attribute of penguins (variable).

To see this data, we need to know the name of the dataset. If we were loading a raw data file into R (more on this later) we would choose the name ourselves. But since this data frame was included in the palmerpenguins packgage, it’s already been given the name penguins. We can take a peek by simply typing in the name of this data frame into an R code chunk:

penguins

# A tibble: 344 × 8
   species island    bill_length_mm bill_depth_mm flipper_length_mm body_mass_g
   <fct>   <fct>              <dbl>         <dbl>             <int>       <int>
 1 Adelie  Torgersen           39.1          18.7               181        3750
 2 Adelie  Torgersen           39.5          17.4               186        3800
 3 Adelie  Torgersen           40.3          18                 195        3250
 4 Adelie  Torgersen           NA            NA                  NA          NA
 5 Adelie  Torgersen           36.7          19.3               193        3450
 6 Adelie  Torgersen           39.3          20.6               190        3650
 7 Adelie  Torgersen           38.9          17.8               181        3625
 8 Adelie  Torgersen           39.2          19.6               195        4675
 9 Adelie  Torgersen           34.1          18.1               193        3475
10 Adelie  Torgersen           42            20.2               190        4250
# ℹ 334 more rows
# ℹ 2 more variables: sex <fct>, year <int>
…
